{
  "name": "",
  "css_prefix_text": "icon-",
  "css_use_suffix": false,
  "hinting": true,
  "units_per_em": 1000,
  "ascent": 850,
  "glyphs": [
    {
      "uid": "9d1b332d90c0dc85c0ad82f99d739827",
      "css": "puzzle",
      "code": 59627,
      "src": "custom_icons",
      "selected": true,
      "svg": {
        "path": "M684.4 600.6C601.1 600.6 533.5 668.1 533.5 751.5 533.5 834.8 601.1 902.3 684.4 902.3 767.7 902.3 835.3 834.8 835.3 751.5 835.3 668.1 767.7 600.6 684.4 600.6ZM768.2 768.2H701.2V835.3H667.6V768.2H600.6V734.7H667.6V667.6H701.2V734.7H768.2V768.2ZM768.2 298.8V550.3C747.3 541.6 724.7 536.2 701.2 534.4V365.9H562.1C529.4 365.9 503.9 351.2 493.7 326.6 483.9 302.8 491.1 274.7 512.5 253.3 556.1 211.6 516.1 164.7 472.8 164.7 428.8 164.7 389.6 211.6 433.1 253.3 454.6 274.7 461.8 302.8 452 326.6 441.8 351.2 416.2 365.9 383.6 365.9H231.8V517.7C231.8 517.7 231.8 517.8 231.8 517.8 252.8 501.6 283.7 481.9 323.8 481.9 376.5 481.9 432.9 532.2 432.9 606.9 432.9 681.8 376.5 732 323.8 732 283.6 732 252.8 712.3 231.8 696.1 231.8 696.1 231.8 696.1 231.8 696.2V835.3H483.2C493.7 860.4 508.8 883 527.4 902.3H164.7V696.2C164.7 663.6 179.4 638 204 627.8 227.8 618 255.9 625.2 277.3 646.6 319.1 690.2 365.9 650.2 365.9 606.9 365.9 562.9 319.1 523.7 277.3 567.3 255.9 588.7 227.8 595.9 204 586.1 179.4 575.9 164.7 550.4 164.7 517.7V298.8H383.6C383.6 298.8 383.7 298.8 383.7 298.8 367.5 277.8 347.8 246.9 347.8 206.8 347.8 154.1 398 97.7 472.8 97.7 547.6 97.7 597.9 154.1 597.9 206.8 597.9 247 578.2 277.8 561.9 298.8 562 298.8 562 298.8 562.1 298.8H768.2Z",
        "width": 1000
      },
      "search": [
        "iconmonstr-puzzle-6-icon"
      ]
    },
    {
      "uid": "3fd09d1fb1f461bfd67d96a7b5eb5fd7",
      "css": "fire",
      "code": 59628,
      "src": "custom_icons",
      "selected": true,
      "svg": {
        "path": "M689.9 557C689.9 541.8 755.2 339.6 628.1 278.5 481.8 208.1 441.2 151.9 442.5 61.8 442.4 65.5 354 208.1 411.5 278.5 501 387.5 463.2 471.9 411.5 464.2 324.8 451.2 335.3 338 349.7 309.5 304.3 304.6 251.8 332.9 225.8 371.3 147.8 487.3 317 598.3 256.8 680.8 211 743.6 132.8 619.9 133.1 618.9 40.2 1103.8 714.9 1116.1 752 711.7 763 590.5 872.2 524.5 875.7 526.1 759.4 472.4 689.9 560.8 689.9 557ZM473.4 897.3C311.3 903.4 327.9 781.7 349.7 742.7 377.3 692.8 447.3 683 411.6 618.8 412 619.8 487.5 631.2 535.3 680.7 608.7 756.5 600.4 892.7 473.4 897.3ZM566.3 154.7C547.4 134.4 535.3 110 535.3 92.8 535.3 60.6 561.6 29.7 597.2 0 600.8 25.8 581.8 64.5 597.2 92.8 609.2 113.8 628.2 137.5 628.2 154.7 628.2 177.7 619.6 198.7 597.2 216.6 593.8 208 587.9 179.7 566.3 154.7Z",
        "width": 1000
      },
      "search": [
        "fire19"
      ]
    },
    {
      "uid": "cd83cb920530d7d966a262f47a591a3c",
      "css": "food",
      "code": 59629,
      "src": "custom_icons",
      "selected": true,
      "svg": {
        "path": "M940.2 894.8C932.9 870.1 815.2 429.2 799.2 369.2 783.2 309.3 741.5 293.2 694.5 293.2 678.3 293.2 615.8 293.2 541.3 293.2V237.8C826.2 211.3 902.2 0 902.2 0H78.9C78.9 0 142.6 223.2 447.3 239.1V293.2C378 293.2 320.9 293.2 305.5 293.2 258.5 293.2 216.8 309.2 200.8 369.2 184.8 429.2 67.1 870.1 59.8 894.8 50.8 925.7 53.6 966.1 116.6 966.1 123.5 966.1 139.3 966.1 161.5 966.1V1000H830.7V966.2C856.9 966.2 875.7 966.2 883.4 966.2 946.4 966.2 949.2 925.8 940.2 894.8ZM500 350.5C654.3 350.5 779.3 475.4 779.3 629.7S654.3 908.9 500 908.9C345.8 908.9 220.8 784 220.8 629.7S345.8 350.5 500 350.5ZM339.7 506.8L311 486.4 302.6 498.3 330.8 518.3C333.4 514.3 336.7 510.7 339.7 506.8ZM418.5 444.2L402.9 412.7 389.8 419.2 405.7 451.2C410 448.9 414.1 446.3 418.5 444.2ZM297.2 629.7C297.2 628.1 297.7 626.6 297.8 624.9H262.2V639.5H298.2C298.1 636.2 297.2 633.1 297.2 629.7ZM719.1 522.8L712.2 510.1 675.6 530.1C677.9 534.2 680.4 538.5 682.6 542.8L719.1 522.8ZM634.3 428.9L621.8 421.4 601.6 455.1C605.8 457.6 610.3 459.6 614.3 462.3L634.3 428.9ZM510.9 428V390.6H496.3V427.3C497.6 427.3 498.8 426.9 500 426.9 503.8 426.9 507.2 427.8 510.9 428ZM617.5 845.3L598.1 806.1C593.9 808.5 589.7 811.1 585.3 813.1L604.4 851.8 617.5 845.3ZM704.8 766.2L669.3 741C666.6 745.1 663.4 748.7 660.4 752.5L696.3 778 704.8 766.2ZM702.8 629.7C702.8 633 702 636.2 701.9 639.5H745.2V624.9H702.4C702.4 626.6 702.8 628.1 702.8 629.7ZM496.3 832.1V873.7H510.9V831.4C507.2 831.5 503.8 832.5 500 832.5 498.8 832.5 497.6 832.1 496.3 832.1ZM321.2 723.3L288.1 741.3 295.1 754.1 328.1 736.1C325.6 732 323.4 727.7 321.2 723.3ZM406.2 808.4C401.8 806.2 397.5 804 393.3 801.5L373 835.3 385.5 842.8 406.2 808.4ZM414.5 771.7L425.7 778 496 660.5C498.8 661.1 501.5 662.2 504.5 662.2 529.2 662.2 549.2 642.2 549.2 617.6 549.2 593 529.2 573 504.5 573 479.9 573 459.9 593 459.9 617.6 459.9 631.7 466.9 643.7 477.1 652L414.5 771.7ZM504.6 604.9C511.7 604.9 517.4 610.6 517.4 617.6 517.4 624.7 511.7 630.4 504.6 630.4 497.5 630.4 491.8 624.7 491.8 617.6 491.8 610.6 497.5 604.9 504.6 604.9Z",
        "width": 1000
      },
      "search": [
        "food27"
      ]
    },
    {
      "uid": "b985a8172425ca9400b140e72bddd64a",
      "css": "sweet",
      "code": 59630,
      "src": "custom_icons",
      "selected": true,
      "svg": {
        "path": "M999.6 227L954.1 211.3 954.5 172.4C954.5 172.4 854.1 133.8 726.6 133.8 619.5 133.8 529.1 161.2 500.1 171.1 471.2 161.2 380.7 133.8 273.6 133.8 146.1 133.8 50.2 171.7 50.2 171.7L50.6 215 0 228.5 0.2 866.2 34.3 852C35.4 851.5 149.5 804.1 254.9 804.1 345.1 804.1 450.7 830.7 482.5 839.3L503.7 845.3 523.6 839C552 830.3 646 804.1 734.3 804.1 838.9 804.1 965.5 851.8 966.7 852.3L1000 864.9 999.6 227ZM476.7 776.9C431.4 765.1 345.1 745.6 267 745.6 190.8 745.6 113.1 764.1 70.6 776.1V218.4C111.8 207.4 182.7 192.3 261.9 192.3 358.9 192.3 444.1 215.1 476.7 225.1V776.9ZM929.7 776.9C884.4 765.1 798.1 745.6 720 745.6 647 745.6 572.9 762.5 529.4 774.5V225C561.6 215 645.3 192.3 741.3 192.3 819.2 192.3 888.9 207.3 929.6 218.3V776.9H929.7ZM603.3 288.2C604 288.1 675.5 275.1 747.9 275.1 820 275.1 884.8 288 885.4 288.2L891 269.3C888.2 268.7 822.9 255.6 747.9 255.6 672.9 255.6 601.3 268.7 598.3 269.2L603.3 288.2ZM885.4 341.4L891 322.5C888.2 321.9 822.9 308.8 747.9 308.8 672.9 308.8 601.3 321.9 598.3 322.5L603.3 341.5C604 341.4 675.4 328.3 747.9 328.3 819.9 328.3 884.7 341.3 885.4 341.4ZM603.3 392.3C604 392.1 675.5 379.1 747.9 379.1 819.9 379.1 884.7 392.1 885.4 392.2L891 373.3C888.2 372.7 822.9 359.6 747.9 359.6 672.9 359.6 601.2 372.7 598.2 373.3L603.3 392.3ZM747.8 432.4C819.9 432.4 884.7 445.3 885.3 445.4L890.9 426.5C888.2 425.9 822.9 412.9 747.8 412.9 672.8 412.9 601.2 425.9 598.2 426.5L603.3 445.5C604 445.4 675.4 432.4 747.8 432.4ZM747.8 483.8C819.9 483.8 884.7 496.8 885.3 496.9L890.9 478C888.2 477.5 822.9 464.4 747.8 464.4 672.9 464.4 601.2 477.4 598.2 478L603.3 497C604 496.9 675.5 483.8 747.8 483.8ZM747.8 517.5C672.9 517.5 601.3 530.6 598.2 531.2L603.3 550.2C604 550.1 675.4 537 747.8 537 820 537 884.7 550 885.3 550.2L890.9 531.2C888.2 530.7 822.9 517.5 747.8 517.5ZM598.3 581.9L603.3 600.9C604 600.8 675.4 587.7 747.9 587.7 819.9 587.7 884.7 600.7 885.4 600.9L891 581.9C888.2 581.4 822.9 568.3 747.9 568.3 672.9 568.2 601.3 581.3 598.3 581.9ZM598.3 632.4L603.3 651.5C604 651.3 675.4 638.3 747.9 638.3 820 638.3 884.8 651.3 885.4 651.4L891 632.5C888.2 631.9 822.9 618.8 747.8 618.8 672.9 618.8 601.3 631.9 598.3 632.4ZM598.3 686.4L603.3 705.4C604 705.2 675.6 692.2 747.9 692.2 820 692.2 884.8 705.2 885.4 705.3L891 686.4C888.2 685.8 822.9 672.7 747.8 672.7 672.9 672.7 601.3 685.8 598.3 686.4ZM257.1 355.6C252.6 355.4 248.1 355.1 243.7 354.9 227.8 354.3 214.5 367.7 212.8 382.9 201.5 385.9 191 390.5 182.2 397.9 174.2 404.7 170.9 415.1 171.6 425.3 145.3 432.8 127.4 447.4 133.9 475H121.8L193.2 627.5H370.2L441.4 475H430.2C428.7 463.1 421.6 452.3 408.1 449.6 408.5 448.7 409 447.8 409.4 446.8 418.7 420.8 399.3 407.7 378.1 401.8 378.9 392.9 376.3 383.6 369.9 375.7 364.9 369.6 357.2 365.9 348.5 363.6 346.9 355.7 342.7 348.7 334.5 344.5 330.5 342.4 326.4 340.3 322.4 338.3 320.7 337.3 318.9 336.4 317.2 335.4 310.4 307.3 264.5 299.4 257.2 333.4 255.3 341.9 255.5 349.2 257.1 355.6ZM207.2 618.1L159.9 489.9 170.7 489.8 218.2 617.4 207.2 618.1ZM236.3 617.5L212 490.6 221.9 490.4 247.2 617.4H236.3V617.5ZM391.6 489.8L402.1 490.4 356 618.2 345.2 617.5 391.6 489.8ZM346.1 489.6L356.2 490.4 329.9 618 320.2 618.3 346.1 489.6ZM300.3 490.4L310.1 491 302.9 617.4H293.6L300.3 490.4ZM267.3 489.6L275.8 617.1 266 617.7 257.5 490.2 267.3 489.6Z",
        "width": 1000
      },
      "search": [
        "sweet8"
      ]
    },
    {
      "uid": "40c1d0c80da7cde621c9700182b0ca0f",
      "css": "chef",
      "code": 59631,
      "src": "custom_icons",
      "selected": true,
      "svg": {
        "path": "M658.6 658.2C618.9 699.5 566.3 724.9 508.5 724.9 449.1 724.9 395.2 698.2 355.2 655 202.1 704.3 174.9 825.2 174.9 870.9 174.9 928.8 174.9 1000 174.9 1000H825.1C825.1 1000 825.1 964.7 825.1 904 825.1 856.1 808.1 715.5 658.6 658.2ZM337.6 294V447.8C337.6 457.8 344.1 466 353.1 469 353.1 469.6 353 470 353 470.5 353 550.8 395.4 619.1 454.7 645.4 455.2 645.6 455.7 645.8 456.1 646.1 460.8 648 465.6 649.8 470.5 651.3 471.5 651.6 472.5 651.9 473.5 652.2 478 653.4 482.6 654.4 487.2 655.1 488.4 655.4 489.7 655.7 491 655.8 496.7 656.6 502.5 657.1 508.5 657.1 514.4 657.1 520.1 656.6 525.8 655.9 527 655.7 528.2 655.4 529.3 655.2 534 654.4 538.6 653.5 543.2 652.3 544 652 544.8 651.7 545.7 651.5 550.7 650 555.5 648.3 560.3 646.2 560.6 646.1 560.9 646 561.2 645.8 621.1 619.9 663.9 551.3 663.9 470.5 663.9 470.3 663.9 470.1 663.9 469.9 674.9 468.3 683.5 459.2 683.5 447.8V282.3C710.9 268.5 734 249.6 747.8 223.7 776.1 170.4 778.3 118.8 754 78.3 729.8 38 682.5 14.9 624.2 14.9 582.5 14.9 545.2 33.2 514.6 56.4 487.3 26.1 434.6-1.4 378.3 0.1 341.9 1 290.4 14.5 251.1 73.3 230.9 103.6 224.7 135.7 232.6 168.6 247.8 230.7 311 276.9 337.6 294ZM288.9 98.5C311.7 64.3 342.2 46.4 379.4 45.5 419.9 44.5 460.8 64.8 480.5 86.4 449.5 117.8 430.8 148.1 429.2 150.7 422.7 161.4 426.1 175.4 436.9 181.9 447.6 188.4 461.5 185 468.1 174.3 468.8 173.1 538.6 60.4 624.1 60.4 666.1 60.4 699.2 75.4 715 101.7 730.8 127.9 728.1 163.6 707.6 202.3 670 273.1 509.3 276 450.5 271.1 438.1 270 427 279.4 426.1 291.9 425 304.4 434.3 315.4 446.8 316.4 449.3 316.6 466.4 318 491.5 318 529.8 318 586.5 314.8 638.1 299.8V425.1H383.1V281.2C383.1 272.9 378.6 265.3 371.3 261.3 370.5 260.9 290.9 215.9 276.8 157.7 271.9 137.5 275.8 118.1 288.9 98.5Z",
        "width": 1000
      },
      "search": [
        "chef20"
      ]
    },
    {
      "uid": "72109d2fb3088d0e66ea6a9204297651",
      "css": "spin1",
      "code": 59438,
      "src": "fontelico"
    },
    {
      "uid": "f0c301ac841dafc38d8eb1b933fc73e5",
      "css": "spin2",
      "code": 59439,
      "src": "fontelico"
    },
    {
      "uid": "2a6740fc2f9d0edea54205963f662594",
      "css": "spin3",
      "code": 59437,
      "src": "fontelico"
    },
    {
      "uid": "9bd60140934a1eb9236fd7a8ab1ff6ba",
      "css": "spin4",
      "code": 59440,
      "src": "fontelico"
    },
    {
      "uid": "5d2d07f112b8de19f2c0dbfec3e42c05",
      "css": "spin5",
      "code": 59441,
      "src": "fontelico"
    },
    {
      "uid": "9bc2902722abb366a213a052ade360bc",
      "css": "spin6",
      "code": 59442,
      "src": "fontelico"
    },
    {
      "uid": "9dd9e835aebe1060ba7190ad2b2ed951",
      "css": "search",
      "code": 59399,
      "src": "fontawesome"
    },
    {
      "uid": "bf882b30900da12fca090d9796bc3030",
      "css": "mail-empty",
      "code": 59416,
      "src": "fontawesome"
    },
    {
      "uid": "ccc2329632396dc096bb638d4b46fb98",
      "css": "mail",
      "code": 59417,
      "src": "fontawesome"
    },
    {
      "uid": "d73eceadda1f594cec0536087539afbf",
      "css": "heart",
      "code": 59562,
      "src": "fontawesome"
    },
    {
      "uid": "f3dc2d6d8fe9cf9ebff84dc260888cdf",
      "css": "heart-empty",
      "code": 59560,
      "src": "fontawesome"
    },
    {
      "uid": "474656633f79ea2f1dad59ff63f6bf07",
      "css": "star",
      "code": 59424,
      "src": "fontawesome"
    },
    {
      "uid": "d17030afaecc1e1c22349b99f3c4992a",
      "css": "star-empty",
      "code": 59592,
      "src": "fontawesome"
    },
    {
      "uid": "31972e4e9d080eaa796290349ae6c1fd",
      "css": "users-group",
      "code": 59420,
      "src": "fontawesome"
    },
    {
      "uid": "ca2d64f8a3ea7cbf6af45898b2dcf35e",
      "css": "male",
      "code": 59421,
      "src": "fontawesome"
    },
    {
      "uid": "9bf7e14698cccdca37a6f1a02cf7d79e",
      "css": "female",
      "code": 59422,
      "src": "fontawesome"
    },
    {
      "uid": "c2314ed1d2314b89f9285c53bcbf2548",
      "css": "child",
      "code": 59423,
      "src": "fontawesome"
    },
    {
      "uid": "381da2c2f7fd51f8de877c044d7f439d",
      "css": "picture",
      "code": 59404,
      "src": "fontawesome"
    },
    {
      "uid": "dd492243d64e21dfe16a92452f7861cb",
      "css": "th-large",
      "code": 59612,
      "src": "fontawesome"
    },
    {
      "uid": "b1887b423d2fd15c345e090320c91ca0",
      "css": "th",
      "code": 59613,
      "src": "fontawesome"
    },
    {
      "uid": "f805bb95d40c7ef2bc51b3d50d4f2e5c",
      "css": "th-list",
      "code": 59614,
      "src": "fontawesome"
    },
    {
      "uid": "c1f1975c885aa9f3dad7810c53b82074",
      "css": "lock",
      "code": 59435,
      "src": "fontawesome"
    },
    {
      "uid": "657ab647f6248a6b57a5b893beaf35a9",
      "css": "lock-open",
      "code": 59561,
      "src": "fontawesome"
    },
    {
      "uid": "5b0772e9484a1a11646793a82edd622a",
      "css": "pin",
      "code": 59393,
      "src": "fontawesome"
    },
    {
      "uid": "9c1376672bb4f1ed616fdd78a23667e9",
      "css": "comment",
      "code": 59589,
      "src": "fontawesome"
    },
    {
      "uid": "31951fbb9820ed0690f675b3d495c8da",
      "css": "chat-empty",
      "code": 59590,
      "src": "fontawesome"
    },
    {
      "uid": "cd21cbfb28ad4d903cede582157f65dc",
      "css": "bell",
      "code": 59591,
      "src": "fontawesome"
    },
    {
      "uid": "bbfb51903f40597f0b70fd75bc7b5cac",
      "css": "trash",
      "code": 59611,
      "src": "fontawesome"
    },
    {
      "uid": "f48ae54adfb27d8ada53d0fd9e34ee10",
      "css": "trash-empty",
      "code": 59610,
      "src": "fontawesome"
    },
    {
      "uid": "1b5a5d7b7e3c71437f5a26befdd045ed",
      "css": "doc",
      "code": 59599,
      "src": "fontawesome"
    },
    {
      "uid": "5408be43f7c42bccee419c6be53fdef5",
      "css": "doc-text",
      "code": 59600,
      "src": "fontawesome"
    },
    {
      "uid": "9daa1fdf0838118518a7e22715e83abc",
      "css": "file-pdf",
      "code": 59601,
      "src": "fontawesome"
    },
    {
      "uid": "310ffd629da85142bc8669f010556f2d",
      "css": "file-word",
      "code": 59602,
      "src": "fontawesome"
    },
    {
      "uid": "f761c3bbe16ba2d332914ecb28e7a042",
      "css": "file-excel",
      "code": 59603,
      "src": "fontawesome"
    },
    {
      "uid": "edcd4022de8d8df266ef7c42d2658ca5",
      "css": "file-powerpoint",
      "code": 59604,
      "src": "fontawesome"
    },
    {
      "uid": "3c961c1a8d874815856fc6637dc5a13c",
      "css": "file-image",
      "code": 59605,
      "src": "fontawesome"
    },
    {
      "uid": "e80ae555c1413a4ec18b33fb348b4049",
      "css": "file-archive",
      "code": 59606,
      "src": "fontawesome"
    },
    {
      "uid": "81db033e704eb7c586a365559d7c0f36",
      "css": "file-audio",
      "code": 59607,
      "src": "fontawesome"
    },
    {
      "uid": "dd69d9aa589ea7bc0a82a3fe67039f4b",
      "css": "file-video",
      "code": 59608,
      "src": "fontawesome"
    },
    {
      "uid": "26613a2e6bc41593c54bead46f8c8ee3",
      "css": "file-code",
      "code": 59609,
      "src": "fontawesome"
    },
    {
      "uid": "e99461abfef3923546da8d745372c995",
      "css": "cog",
      "code": 59430,
      "src": "fontawesome"
    },
    {
      "uid": "98687378abd1faf8f6af97c254eb6cd6",
      "css": "cogs",
      "code": 59431,
      "src": "fontawesome"
    },
    {
      "uid": "5bb103cd29de77e0e06a52638527b575",
      "css": "wrench",
      "code": 59433,
      "src": "fontawesome"
    },
    {
      "uid": "21b42d3c3e6be44c3cc3d73042faa216",
      "css": "sliders",
      "code": 59434,
      "src": "fontawesome"
    },
    {
      "uid": "f3f90c8c89795da30f7444634476ea4f",
      "css": "left",
      "code": 59447,
      "src": "fontawesome"
    },
    {
      "uid": "7bf14281af5633a597f85b061ef1cfb9",
      "css": "right",
      "code": 59446,
      "src": "fontawesome"
    },
    {
      "uid": "5de9370846a26947e03f63142a3f1c07",
      "css": "up",
      "code": 59445,
      "src": "fontawesome"
    },
    {
      "uid": "e4dde1992f787163e2e2b534b8c8067d",
      "css": "down",
      "code": 59432,
      "src": "fontawesome"
    },
    {
      "uid": "745f12abe1472d14f8f658de7e5aba66",
      "css": "double-left",
      "code": 59567,
      "src": "fontawesome"
    },
    {
      "uid": "fdfbd1fcbd4cb229716a810801a5f207",
      "css": "double-right",
      "code": 59568,
      "src": "fontawesome"
    },
    {
      "uid": "63b3012c8cbe3654ba5bea598235aa3a",
      "css": "double-up",
      "code": 59569,
      "src": "fontawesome"
    },
    {
      "uid": "dfec4ffa849d8594c2e4b86f6320b8a6",
      "css": "double-down",
      "code": 59570,
      "src": "fontawesome"
    },
    {
      "uid": "757afacc32d82967975cbb3b45cfb41b",
      "css": "desktop",
      "code": 59429,
      "src": "fontawesome"
    },
    {
      "uid": "500fc1f109021e4b1de4deda2f7ed399",
      "css": "laptop",
      "code": 59428,
      "src": "fontawesome"
    },
    {
      "uid": "f001fc3d4daa7da078e8c971e4f36977",
      "css": "tablet",
      "code": 59427,
      "src": "fontawesome"
    },
    {
      "uid": "0357f7abbc0babf43509669f332e41e6",
      "css": "mobile",
      "code": 59426,
      "src": "fontawesome"
    },
    {
      "uid": "197375a3cea8cb90b02d06e4ddf1433d",
      "css": "globe",
      "code": 59425,
      "src": "fontawesome"
    },
    {
      "uid": "dd6c6b221a1088ff8a9b9cd32d0b3dd5",
      "css": "checkbox",
      "code": 59413,
      "src": "fontawesome"
    },
    {
      "uid": "4b900d04e8ab8c82f080c1cfbac5772c",
      "css": "checkbox-empty",
      "code": 59414,
      "src": "fontawesome"
    },
    {
      "uid": "130380e481a7defc690dfb24123a1f0c",
      "css": "circle",
      "code": 59412,
      "src": "fontawesome"
    },
    {
      "uid": "422e07e5afb80258a9c4ed1706498f8a",
      "css": "circle-empty",
      "code": 59410,
      "src": "fontawesome"
    },
    {
      "uid": "81bb68665e8e595505272a746db07c7a",
      "css": "circle-dot",
      "code": 59411,
      "src": "fontawesome"
    },
    {
      "uid": "0cd2582b8c93719d066ee0affd02ac78",
      "css": "sort-asc",
      "code": 59632,
      "src": "fontawesome"
    },
    {
      "uid": "27b13eff5eb0ca15e01a6e65ffe6eeec",
      "css": "sort-desc",
      "code": 59633,
      "src": "fontawesome"
    },
    {
      "uid": "aa58e30c7196b1378a6ca78c025cc3b5",
      "css": "behance",
      "code": 59496,
      "src": "fontawesome"
    },
    {
      "uid": "169f51b7e405de8c03cf85a6e8c740ab",
      "css": "bitbucket",
      "code": 59497,
      "src": "fontawesome"
    },
    {
      "uid": "66faf6c4e3b0e4e33f06171e30253e26",
      "css": "cc",
      "code": 59498,
      "src": "fontawesome"
    },
    {
      "uid": "76675011e906d50af404186b489fc76f",
      "css": "codeopen",
      "code": 59499,
      "src": "fontawesome"
    },
    {
      "uid": "01c946ce2ed5500e0a918f2b3a7d1923",
      "css": "css3",
      "code": 59500,
      "src": "fontawesome"
    },
    {
      "uid": "6975c4c656d41a0283d9c52516bf38ed",
      "css": "delicious",
      "code": 59501,
      "src": "fontawesome"
    },
    {
      "uid": "54fad985c676a007c79c346ebaec29d6",
      "css": "deviantart",
      "code": 59504,
      "src": "fontawesome"
    },
    {
      "uid": "ef0e69c3275e8c845aca69a79900092d",
      "css": "digg",
      "code": 59502,
      "src": "fontawesome"
    },
    {
      "uid": "199c44bca402ec5a6351f75ba5228375",
      "css": "dribbble",
      "code": 59503,
      "src": "fontawesome"
    },
    {
      "uid": "9e34a047fee949eae9b6e613d790d6cf",
      "css": "dropbox",
      "code": 59505,
      "src": "fontawesome"
    },
    {
      "uid": "d16ba9078d51e79b5ad6af0235adbd54",
      "css": "drupal",
      "code": 59506,
      "src": "fontawesome"
    },
    {
      "uid": "8e04c98c8f5ca0a035776e3001ad2638",
      "css": "facebook",
      "code": 59507,
      "src": "fontawesome"
    },
    {
      "uid": "649004fb1ed50395a33c3780236ba8aa",
      "css": "flickr",
      "code": 59508,
      "src": "fontawesome"
    },
    {
      "uid": "a32d12927584e3c8a3dff23eb816d360",
      "css": "foursquare",
      "code": 59509,
      "src": "fontawesome"
    },
    {
      "uid": "e7cb72a17f3b21e3576f35c3f0a7639b",
      "css": "git",
      "code": 59510,
      "src": "fontawesome"
    },
    {
      "uid": "5e0a374728ffa8d0ae1f331a8f648231",
      "css": "github",
      "code": 59511,
      "src": "fontawesome"
    },
    {
      "uid": "5b4b48418155c35459f12171f97c82ff",
      "css": "gittip",
      "code": 59512,
      "src": "fontawesome"
    },
    {
      "uid": "f06fe7ff18d1c591bc1183cb3ab105e9",
      "css": "google",
      "code": 59513,
      "src": "fontawesome"
    },
    {
      "uid": "b8d0c7d76e87b94882329a88e8e43d3d",
      "css": "gplus",
      "code": 59514,
      "src": "fontawesome"
    },
    {
      "uid": "50fbbd926b2a64fcaf384788056c0e43",
      "css": "gwallet",
      "code": 59515,
      "src": "fontawesome"
    },
    {
      "uid": "237ee28b7e826b75a5b6f51ee3e2bfc1",
      "css": "hacker-news",
      "code": 59516,
      "src": "fontawesome"
    },
    {
      "uid": "ff44f01f60948555026580eedf1e39bb",
      "css": "html5",
      "code": 59517,
      "src": "fontawesome"
    },
    {
      "uid": "4c1ef492f1d2c39a2250ae457cee2a6e",
      "css": "instagramm",
      "code": 59518,
      "src": "fontawesome"
    },
    {
      "uid": "9b9e5f3ee9e3525808ed2afc83e8bb0b",
      "css": "ioxhost",
      "code": 59519,
      "src": "fontawesome"
    },
    {
      "uid": "8cd1b9899389237def726c08587a649f",
      "css": "joomla",
      "code": 59520,
      "src": "fontawesome"
    },
    {
      "uid": "486f6d0a05aef9e65eeb07be26793bd3",
      "css": "jsfiddle",
      "code": 59521,
      "src": "fontawesome"
    },
    {
      "uid": "5dcf6620378353c5b0089b12d961fedf",
      "css": "lastfm",
      "code": 59522,
      "src": "fontawesome"
    },
    {
      "uid": "47a35af762c8e06f3d152750134c8750",
      "css": "linux",
      "code": 59523,
      "src": "fontawesome"
    },
    {
      "uid": "e9107949dd6c9e8ab2b29ae07156e38c",
      "css": "linkedin",
      "code": 59524,
      "src": "fontawesome"
    },
    {
      "uid": "fcdc6d7a89771d2dbd38eb719aafb2ff",
      "css": "maxcdn",
      "code": 59525,
      "src": "fontawesome"
    },
    {
      "uid": "9b2e17ef8fc33eb2a1c8b5953d51c595",
      "css": "meanpath",
      "code": 59526,
      "src": "fontawesome"
    },
    {
      "uid": "da8a58b1deff73d1ba89ba1172ca4bcc",
      "css": "openid",
      "code": 59527,
      "src": "fontawesome"
    },
    {
      "uid": "bbf50a560f95a4cce5209d47e71cbc30",
      "css": "pagelines",
      "code": 59528,
      "src": "fontawesome"
    },
    {
      "uid": "1d2b426ab6db81a58547ba13d8701ad8",
      "css": "paypal",
      "code": 59529,
      "src": "fontawesome"
    },
    {
      "uid": "da851b7c1f84ee83f93b29ae613558dc",
      "css": "pinterest-circled",
      "code": 59559,
      "src": "fontawesome"
    },
    {
      "uid": "657ff9fe5df74f1993937aa4b19cf909",
      "css": "qq",
      "code": 59530,
      "src": "fontawesome"
    },
    {
      "uid": "9121e3eb89863f67c8bda378eea01a93",
      "css": "reddit",
      "code": 59531,
      "src": "fontawesome"
    },
    {
      "uid": "cfa8a2588cab42a6ff7ba81eb4fec21b",
      "css": "renren",
      "code": 59532,
      "src": "fontawesome"
    },
    {
      "uid": "58a16628dcbd6456c61218f3d27591be",
      "css": "skype",
      "code": 59533,
      "src": "fontawesome"
    },
    {
      "uid": "87276033a77d0b9b890125c3639e4f87",
      "css": "slack",
      "code": 59534,
      "src": "fontawesome"
    },
    {
      "uid": "be13b8c668eb18839d5d53107725f1de",
      "css": "slideshare",
      "code": 59535,
      "src": "fontawesome"
    },
    {
      "uid": "dff942d95eb1b3f1be140e622d0a7c74",
      "css": "soundcloud",
      "code": 59536,
      "src": "fontawesome"
    },
    {
      "uid": "fb4794d89b77ab712ad56c0dc4c76c6b",
      "css": "spotify",
      "code": 59537,
      "src": "fontawesome"
    },
    {
      "uid": "b6d6b3561d705330c7ad2155e8ee94ba",
      "css": "stackexchange",
      "code": 59538,
      "src": "fontawesome"
    },
    {
      "uid": "e1597911f34fea0a188ae51fe4a2d9a9",
      "css": "stackoverflow",
      "code": 59539,
      "src": "fontawesome"
    },
    {
      "uid": "2ec1790207a8ba67a7192c6af1eafec4",
      "css": "steam",
      "code": 59540,
      "src": "fontawesome"
    },
    {
      "uid": "3958d12510001a1a172f088893506c27",
      "css": "stumbleupon",
      "code": 59541,
      "src": "fontawesome"
    },
    {
      "uid": "d9b33592f56a02af69a36aa64ed452fc",
      "css": "tencent-weibo",
      "code": 59542,
      "src": "fontawesome"
    },
    {
      "uid": "b846892636bd74112998bb159bdddf27",
      "css": "trello",
      "code": 59543,
      "src": "fontawesome"
    },
    {
      "uid": "43fcf807461234935e65261328e1dff6",
      "css": "tumblr",
      "code": 59544,
      "src": "fontawesome"
    },
    {
      "uid": "e70df9acbabaebfbbf9c1dbc3e52ab13",
      "css": "twitch",
      "code": 59545,
      "src": "fontawesome"
    },
    {
      "uid": "627abcdb627cb1789e009c08e2678ef9",
      "css": "twitter",
      "code": 59546,
      "src": "fontawesome"
    },
    {
      "uid": "676cf66256441f09e4934ae6378b3e2d",
      "css": "vine",
      "code": 59547,
      "src": "fontawesome"
    },
    {
      "uid": "f3d95e13eb43f3f6b8efe1eb424a1e3b",
      "css": "vkontakte",
      "code": 59548,
      "src": "fontawesome"
    },
    {
      "uid": "34cb6ce62bf3f1efd59e2f5eb0d79f82",
      "css": "wechat",
      "code": 59549,
      "src": "fontawesome"
    },
    {
      "uid": "9854b94688e31450fc76aae4c2a45dff",
      "css": "weibo",
      "code": 59550,
      "src": "fontawesome"
    },
    {
      "uid": "8aff323697468c4a63993cde00386ec6",
      "css": "windows",
      "code": 59551,
      "src": "fontawesome"
    },
    {
      "uid": "39f52f80e1864df5e5022d7f0f5ff86f",
      "css": "wordpress",
      "code": 59552,
      "src": "fontawesome"
    },
    {
      "uid": "11ebb30e17efcd988a228ade5d3e8c74",
      "css": "xing",
      "code": 59553,
      "src": "fontawesome"
    },
    {
      "uid": "7a48de2ac7ca47c78d6c279996ee6250",
      "css": "yelp",
      "code": 59554,
      "src": "fontawesome"
    },
    {
      "uid": "a9862b9d5197886c1ad693ecd7120b31",
      "css": "youtube",
      "code": 59555,
      "src": "fontawesome"
    },
    {
      "uid": "ba071f2b01f1fed40d8e2366434b6f42",
      "css": "yahoo",
      "code": 59556,
      "src": "fontawesome"
    },
    {
      "uid": "2c2ca8a96b31781c9c8056d05c0a8980",
      "css": "blank",
      "code": 59558,
      "src": "fontawesome"
    },
    {
      "uid": "5e0191587645a9f5d514ed4b0a0e008a",
      "css": "lemon",
      "code": 59557,
      "src": "fontawesome"
    },
    {
      "uid": "39e2e6682c28e1e3b5f49825a19717c4",
      "css": "note",
      "code": 59595,
      "src": "entypo"
    },
    {
      "uid": "fda731b5a4026685e1a9c7e64228e2b2",
      "css": "note2",
      "code": 59597,
      "src": "entypo"
    },
    {
      "uid": "bbd66ef66bb8fa9edde54d9a90b89150",
      "css": "user",
      "code": 59587,
      "src": "entypo"
    },
    {
      "uid": "ecf8edb95c3f45eb433b4cce7ba9f740",
      "css": "users",
      "code": 59586,
      "src": "entypo"
    },
    {
      "uid": "6274e0601f2feef7eced89146e708de0",
      "css": "user-add",
      "code": 59588,
      "src": "entypo"
    },
    {
      "uid": "6341ebcbe1ed1f6777c1b9527ead368e",
      "css": "video",
      "code": 59585,
      "src": "entypo"
    },
    {
      "uid": "3def559c3c39b8500882e02892b7daa8",
      "css": "pictures",
      "code": 59584,
      "src": "entypo"
    },
    {
      "uid": "85017ab6ca074831a8de771b40e9640c",
      "css": "camera",
      "code": 59583,
      "src": "entypo"
    },
    {
      "uid": "2cfb3f2b46b34a1790aec0aa846297b6",
      "css": "menu",
      "code": 59578,
      "src": "entypo"
    },
    {
      "uid": "14017aae737730faeda4a6fd8fb3a5f0",
      "css": "check",
      "code": 59563,
      "src": "entypo"
    },
    {
      "uid": "c709da589c923ba3c2ad48d9fc563e93",
      "css": "cancel",
      "code": 59564,
      "src": "entypo"
    },
    {
      "uid": "70370693ada58ef0a60fa0984fe8d52a",
      "css": "plus",
      "code": 59565,
      "src": "entypo"
    },
    {
      "uid": "1256e3054823e304d7e452a589cf8bb8",
      "css": "minus",
      "code": 59566,
      "src": "entypo"
    },
    {
      "uid": "3a230e539a4f3b904debd04c6c155034",
      "css": "help",
      "code": 59571,
      "src": "entypo"
    },
    {
      "uid": "63b86fedd4ee9ad2105f54f4888e7088",
      "css": "info",
      "code": 59572,
      "src": "entypo"
    },
    {
      "uid": "513ac180ff85bd275f2b736720cbbf5e",
      "css": "home",
      "code": 59582,
      "src": "entypo"
    },
    {
      "uid": "815503841e980c848f55e0271deacead",
      "css": "link",
      "code": 59573,
      "src": "entypo"
    },
    {
      "uid": "44b9e75612c5fad5505edd70d071651f",
      "css": "attach",
      "code": 59575,
      "src": "entypo"
    },
    {
      "uid": "25fc99a30fecc4021fdcae5fff5ba9ac",
      "css": "eye",
      "code": 59576,
      "src": "entypo"
    },
    {
      "uid": "875ab0f6d417223f6ec76ff7f0a4baed",
      "css": "tag",
      "code": 59577,
      "src": "entypo"
    },
    {
      "uid": "1d2a6c3d9236b88b0f185c7c4530fa52",
      "css": "flag",
      "code": 59615,
      "src": "entypo"
    },
    {
      "uid": "b6fc2f656ef87275889422e19550680a",
      "css": "reply",
      "code": 59394,
      "src": "entypo"
    },
    {
      "uid": "1a4b54ba5618e5364fc47a3d26c1cf59",
      "css": "reply-all",
      "code": 59395,
      "src": "entypo"
    },
    {
      "uid": "ec347024a3640deebeeab53fd0d5ad03",
      "css": "forward",
      "code": 59396,
      "src": "entypo"
    },
    {
      "uid": "c3e5dafba1739ef33cc574c7484febf7",
      "css": "quote",
      "code": 59574,
      "src": "entypo"
    },
    {
      "uid": "b6f32db98a3de777f5ae3005191b1831",
      "css": "code",
      "code": 59581,
      "src": "entypo"
    },
    {
      "uid": "c77fd2fd065b5fe16d6f2b41e190b266",
      "css": "pencil",
      "code": 59579,
      "src": "entypo"
    },
    {
      "uid": "bcb868184ff9c35f8aef564f50c0d649",
      "css": "feather",
      "code": 59580,
      "src": "entypo"
    },
    {
      "uid": "28f124a10127a47b9d9472699193d75a",
      "css": "print",
      "code": 59397,
      "src": "entypo"
    },
    {
      "uid": "216891b0093d4dbef19877d5b00d1b16",
      "css": "retweet",
      "code": 59623,
      "src": "entypo"
    },
    {
      "uid": "005a38f6af74b31aeb817fedb09d2175",
      "css": "keyboard",
      "code": 59398,
      "src": "entypo"
    },
    {
      "uid": "97902f87200ce74d181044df02a0458d",
      "css": "attention",
      "code": 59616,
      "src": "entypo"
    },
    {
      "uid": "457c8e2b305e7af74c1be4f07a01ca92",
      "css": "vcard",
      "code": 59392,
      "src": "entypo"
    },
    {
      "uid": "540b6a4262be769515c79700618b4aea",
      "css": "address",
      "code": 59444,
      "src": "entypo"
    },
    {
      "uid": "a42b598e4298f3319b25a2702a02e7ff",
      "css": "location",
      "code": 59443,
      "src": "entypo"
    },
    {
      "uid": "51727ca007aa35ceabcaffc28934faee",
      "css": "book-open",
      "code": 59419,
      "src": "entypo"
    },
    {
      "uid": "48b79f27e4798f23bafa07b55dbe5b73",
      "css": "book",
      "code": 59415,
      "src": "entypo"
    },
    {
      "uid": "5854855e963044f93b15738a5bb27a29",
      "css": "phone",
      "code": 59418,
      "src": "entypo"
    },
    {
      "uid": "6a7b9d4863bb7e6c79e9457a72d689b6",
      "css": "tools",
      "code": 59622,
      "src": "entypo"
    },
    {
      "uid": "91426c82d94428a33353e495418435e3",
      "css": "share",
      "code": 59598,
      "src": "entypo"
    },
    {
      "uid": "a204f0fa972408eaae5a363c444991b2",
      "css": "login",
      "code": 59402,
      "src": "entypo"
    },
    {
      "uid": "2d76f2c8d13be40694ecadfea7fb83c3",
      "css": "logout",
      "code": 59403,
      "src": "entypo"
    },
    {
      "uid": "8663320a860b00f26e94d3d15c9ba99a",
      "css": "clock-empty",
      "code": 59400,
      "src": "entypo"
    },
    {
      "uid": "7f6916533c0842b6cec699fd773693d3",
      "css": "hourglass",
      "code": 59401,
      "src": "entypo"
    },
    {
      "uid": "465bb89b6f204234e5787c326b4ae54c",
      "css": "ccw",
      "code": 59406,
      "src": "entypo"
    },
    {
      "uid": "bb46b15cb78cc4cc05d3d715d522ac4d",
      "css": "cw",
      "code": 59407,
      "src": "entypo"
    },
    {
      "uid": "3bd18d47a12b8709e9f4fe9ead4f7518",
      "css": "refresh",
      "code": 59408,
      "src": "entypo"
    },
    {
      "uid": "cb13afd4722a849d48056540bb74c47e",
      "css": "play",
      "code": 59617,
      "src": "entypo"
    },
    {
      "uid": "48f2e18872fe74d4579a4c8a1527fc1e",
      "css": "stop",
      "code": 59618,
      "src": "entypo"
    },
    {
      "uid": "d8d378d0ce413f231dfa37592e39c227",
      "css": "pause",
      "code": 59619,
      "src": "entypo"
    },
    {
      "uid": "e188c02f740feff7e2d2bce1950b75fa",
      "css": "record",
      "code": 59620,
      "src": "entypo"
    },
    {
      "uid": "0afbb00323696f49e9c47f4d9fe6390b",
      "css": "to-end",
      "code": 59621,
      "src": "entypo"
    },
    {
      "uid": "ceefe7653a4f6edaacce9e7f196cec5a",
      "css": "to-start",
      "code": 59624,
      "src": "entypo"
    },
    {
      "uid": "18f7c393e3532e40edd45607c9d99988",
      "css": "fast-forward",
      "code": 59625,
      "src": "entypo"
    },
    {
      "uid": "85806fd8ab907f45d34f976354a0df23",
      "css": "fast-backward",
      "code": 59626,
      "src": "entypo"
    },
    {
      "uid": "978aa8facd816df874039e139cb0cdde",
      "css": "trophy",
      "code": 59436,
      "src": "entypo"
    },
    {
      "uid": "d2c6b59d9a239140cb76be0627480855",
      "css": "dot",
      "code": 59452,
      "src": "entypo"
    },
    {
      "uid": "13b11ab72c6ae9c97ee12428e17f3a4e",
      "css": "dot2",
      "code": 59593,
      "src": "entypo"
    },
    {
      "uid": "d10920db2e79c997c5e783279291970c",
      "css": "dot3",
      "code": 59594,
      "src": "entypo"
    },
    {
      "uid": "39c4d0e225a1263a398a47523cb5b9bd",
      "css": "brush",
      "code": 59405,
      "src": "entypo"
    },
    {
      "uid": "vqyhv5kmwcj9zxq28dhq5npykr2k39co",
      "css": "basket",
      "code": 59596,
      "src": "modernpics"
    },
    {
      "uid": "0ohst63cgq1mf1syayvfl8mphms8dbes",
      "css": "clock",
      "code": 59409,
      "src": "modernpics"
    },
    {
      "uid": "572c9ded6a688698dc275b30ff30fefa",
      "css": "music-light",
      "code": 59448,
      "src": "linecons"
    },
    {
      "uid": "9725db89b610135dc76cd8a21afffa83",
      "css": "search-light",
      "code": 59449,
      "src": "linecons"
    },
    {
      "uid": "91bac16b22827347e9ee20477f0b44d2",
      "css": "mail-light",
      "code": 59450,
      "src": "linecons"
    },
    {
      "uid": "b19ac67070bc44e310990016288e449c",
      "css": "heart-light",
      "code": 59451,
      "src": "linecons"
    },
    {
      "uid": "56a0672588820ab1a16363e5d07dd22e",
      "css": "user-light",
      "code": 59453,
      "src": "linecons"
    },
    {
      "uid": "f2a37db235ca1951d60d7ebc9733eb54",
      "css": "video-light",
      "code": 59454,
      "src": "linecons"
    },
    {
      "uid": "b59cc4d390a6df564a055f43c03a6af5",
      "css": "camera-light",
      "code": 59455,
      "src": "linecons"
    },
    {
      "uid": "8573943a49ed6dd8f7819070445baa46",
      "css": "photo-light",
      "code": 59456,
      "src": "linecons"
    },
    {
      "uid": "359f380b2113cb40259269aed843e33d",
      "css": "attach-light",
      "code": 59457,
      "src": "linecons"
    },
    {
      "uid": "47e9e56d2b5abe839bcf1e014d643dea",
      "css": "lock-light",
      "code": 59458,
      "src": "linecons"
    },
    {
      "uid": "a58c05a8a3ba59ababd4860a30892560",
      "css": "eye-light",
      "code": 59459,
      "src": "linecons"
    },
    {
      "uid": "930c31d4c72bd792b5dceb6de607c3e0",
      "css": "tag-light",
      "code": 59460,
      "src": "linecons"
    },
    {
      "uid": "06a2fbb04dffecdb444936073cae9123",
      "css": "thumbs-up-light",
      "code": 59461,
      "src": "linecons"
    },
    {
      "uid": "2aeb4987b469d22fcb8b471b6d2cdfff",
      "css": "pencil-light",
      "code": 59462,
      "src": "linecons"
    },
    {
      "uid": "5b1a68729f60f8be3769238379d1b8e9",
      "css": "comment-light",
      "code": 59463,
      "src": "linecons"
    },
    {
      "uid": "1ea8ad6dbe1ae9a73565ad16cf88de19",
      "css": "location-light",
      "code": 59464,
      "src": "linecons"
    },
    {
      "uid": "c2958cfd1eed4434ab6e4bd6ab337af9",
      "css": "cup-light",
      "code": 59465,
      "src": "linecons"
    },
    {
      "uid": "2cc73cc335f054682c04fe63439c4dcb",
      "css": "trash-light",
      "code": 59466,
      "src": "linecons"
    },
    {
      "uid": "f978da58836f23373882916f05fb70b4",
      "css": "doc-light",
      "code": 59467,
      "src": "linecons"
    },
    {
      "uid": "29f4bce4a60650057c5248e30baa15a6",
      "css": "note-light",
      "code": 59494,
      "src": "linecons"
    },
    {
      "uid": "484b4ad2058d17849f205c4054b6f315",
      "css": "cog-light",
      "code": 59492,
      "src": "linecons"
    },
    {
      "uid": "3e2bd88137dd7ceec98b4bfd8640e5ec",
      "css": "params-light",
      "code": 59491,
      "src": "linecons"
    },
    {
      "uid": "43e4647c57186b5e06874621b5e665be",
      "css": "calendar-light",
      "code": 59488,
      "src": "linecons"
    },
    {
      "uid": "143d93c9abdee0f4a7a2a810acc62b91",
      "css": "sound-light",
      "code": 59487,
      "src": "linecons"
    },
    {
      "uid": "ee22dc89481ea63f27654f59dcace804",
      "css": "clock-light",
      "code": 59484,
      "src": "linecons"
    },
    {
      "uid": "fb3ee9c192c946342e0cdd12f06d7774",
      "css": "lightbulb-light",
      "code": 59483,
      "src": "linecons"
    },
    {
      "uid": "cc5e3696cf6c3ad8c32daaea05355a99",
      "css": "tv-light",
      "code": 59480,
      "src": "linecons"
    },
    {
      "uid": "7697f1734d53461137f05faab3f79cf0",
      "css": "desktop-light",
      "code": 59479,
      "src": "linecons"
    },
    {
      "uid": "6a9f3405aba67bcaee81e7ea38946b27",
      "css": "mobile-light",
      "code": 59478,
      "src": "linecons"
    },
    {
      "uid": "52cde78d270e411ccf22c9ec02910d69",
      "css": "cd-light",
      "code": 59477,
      "src": "linecons"
    },
    {
      "uid": "efaf7e97e8b1aa7c2b52cc29432c96ca",
      "css": "inbox-light",
      "code": 59476,
      "src": "linecons"
    },
    {
      "uid": "1e89103762be72b0720eda0468e62b90",
      "css": "globe-light",
      "code": 59475,
      "src": "linecons"
    },
    {
      "uid": "f6eb7f8aed5dc03a323d5ef2895ae50b",
      "css": "cloud-light",
      "code": 59474,
      "src": "linecons"
    },
    {
      "uid": "6fbd93c0d220507921015a15575009e5",
      "css": "paper-plane-light",
      "code": 59473,
      "src": "linecons"
    },
    {
      "uid": "04309fefab5210bf502d278d65d134cf",
      "css": "fire-light",
      "code": 59472,
      "src": "linecons"
    },
    {
      "uid": "4b7f817f780705a5d267ad59e855da91",
      "css": "graduation-light",
      "code": 59471,
      "src": "linecons"
    },
    {
      "uid": "cdcc1a6693235d1205370c1f47d5e7ad",
      "css": "megaphone-light",
      "code": 59470,
      "src": "linecons"
    },
    {
      "uid": "02ad0683eaa9826f396fa7ccf1f1fb25",
      "css": "database-light",
      "code": 59469,
      "src": "linecons"
    },
    {
      "uid": "75347b319511175da51af3955919dbac",
      "css": "key-light",
      "code": 59468,
      "src": "linecons"
    },
    {
      "uid": "6cc796276697d8a75ae21bb2df4badc9",
      "css": "beaker-light",
      "code": 59493,
      "src": "linecons"
    },
    {
      "uid": "f5053e43ef8be31afb905801449ae26d",
      "css": "truck-light",
      "code": 59495,
      "src": "linecons"
    },
    {
      "uid": "b8e88705f42bd79580be828233c65da0",
      "css": "money-light",
      "code": 59490,
      "src": "linecons"
    },
    {
      "uid": "b08f8c33777cd6b512d9576fc6e7f405",
      "css": "food-light",
      "code": 59489,
      "src": "linecons"
    },
    {
      "uid": "5d27926667773d186de09fda4312af27",
      "css": "shop-light",
      "code": 59486,
      "src": "linecons"
    },
    {
      "uid": "f8e8b267a9b949804f0c9dd7fed8e477",
      "css": "diamond-light",
      "code": 59485,
      "src": "linecons"
    },
    {
      "uid": "862d4faacb164c0412cb3249d43d5d39",
      "css": "t-shirt-light",
      "code": 59482,
      "src": "linecons"
    },
    {
      "uid": "d58dc0a0927a7dea2992f615f2fbf400",
      "css": "wallet-light",
      "code": 59481,
      "src": "linecons"
    },
    {
      "uid": "f06941dfcb90dc24b987d810898c4310",
      "css": "arrow-down",
      "code": 59634,
      "src": "fontawesome"
    },
    {
      "uid": "f6d72aa5ef8e8f0e553012af9a29a87e",
      "css": "arrow-left",
      "code": 59635,
      "src": "fontawesome"
    },
    {
      "uid": "fb94e23ae1e7660aa63cc5f351ec7560",
      "css": "arrow-right",
      "code": 59636,
      "src": "fontawesome"
    },
    {
      "uid": "720f98e7580b7987c8dc542513d1d440",
      "css": "arrow-up",
      "code": 59637,
      "src": "fontawesome"
    },
    {
      "uid": "e34c1d65ed4ecd53aec3687f0e5b1cf0",
      "css": "comment-inv",
      "code": 59638,
      "src": "iconic"
    },
    {
      "uid": "518ed8d836b8f75393d6d239291fedb0",
      "css": "eye-inv",
      "code": 61570,
      "src": "mfglabs"
    },
    {
      "uid": "8a6c569e59c69e9de113978b11c057b8",
      "css": "play-main",
      "code": 59639,
      "src": "iconic"
    },
    {
      "uid": "90e3f4bece49e428380d7819aacfe4aa",
      "css": "link-1",
      "code": 59640,
      "src": "custom_icons",
      "selected": true,
      "svg": {
        "path": "M939.6 60.5C859-20.2 728-20.2 647.5 60.5L466.6 242.1C454.3 254.5 454.3 274.5 466.6 286.9 478.9 299.2 498.9 299.2 511.2 286.9L692.1 105.3C748 49.3 839 49.3 895 105.3 950.9 161.4 950.9 252.8 895 308.8L656 548.5C629 575.7 592.9 590.6 554.6 590.6 516.3 590.6 480.3 575.7 453.2 548.5 440.9 536.1 420.9 536.1 408.5 548.5 396.2 560.9 396.2 580.9 408.5 593.3 447.6 632.4 499.5 654 554.6 654S661.6 632.4 700.7 593.3L939.6 353.6C1020.1 272.8 1020.1 141.4 939.6 60.5ZM484.6 717.3L307.9 894.5C280.8 921.7 244.8 936.7 206.4 936.7 168.1 936.7 132.1 921.7 105 894.5 49.1 838.4 49.1 747.1 105 691L343.9 451.4C399.9 395.3 490.9 395.3 546.8 451.4 559.1 463.8 579.1 463.8 591.4 451.4 603.8 439 603.8 419 591.4 406.6 510.9 325.9 379.8 325.9 299.3 406.6L60.4 646.3C-20.1 727-20.1 858.5 60.4 939.3 99.4 978.5 151.3 1000 206.4 1000 261.6 1000 313.5 978.5 352.5 939.3L529.2 762C541.6 749.7 541.6 729.6 529.2 717.3 516.9 704.9 496.9 704.9 484.6 717.3Z",
        "width": 1000
      },
      "search": [
        "link"
      ]
    },
    {
      "uid": "d5e523ac7551e691c3f23c2e9d87f9bc",
      "css": "arrow",
      "code": 59641,
      "src": "custom_icons",
      "selected": true,
      "svg": {
        "path": "M499.2 47.5C265 47.5 72.3 225.2 48.4 453.3H407.6V259.2L680.5 501.2 407.6 743.2V549.1H48.4C72.3 777.2 265 955 499.2 955 749.5 955 952.5 751.9 952.5 501.3S749.5 47.5 499.2 47.5Z",
        "width": 1000
      },
      "search": [
        "arrow"
      ]
    },
    {
      "uid": "749e7d90a9182938180f1d2d8c33584e",
      "css": "right-open",
      "code": 59642,
      "src": "entypo"
    },
    {
      "uid": "c311c48d79488965b0fab7f9cd12b6b5",
      "css": "left-open",
      "code": 59643,
      "src": "entypo"
    },
    {
      "uid": "9c7ff134960bb5a82404e4aeaab366d9",
      "css": "up-open",
      "code": 59644,
      "src": "entypo"
    },
    {
      "uid": "8704cd847a47b64265b8bb110c8b4d62",
      "css": "down-open",
      "code": 59645,
      "src": "entypo"
    },
    {
      "uid": "ad0d5ab86ed115375998caa4df519754",
      "css": "text-quotes",
      "code": 59646,
      "src": "custom_icons",
      "selected": true,
      "svg": {
        "path": "M774.2 178.9C646.5 178.9 545.7 282.4 545.7 410.1S650.6 641.3 778.3 641.3C779.5 641.3 781.5 641.1 782.7 641.1 732.3 681.3 668.9 705.5 599.5 705.5 567.5 705.5 541.8 731.4 541.8 763.3S562.4 821.1 594.3 821.1C820.9 821.1 1000 636.7 1000 410.1 1000 410 1000 410 1000 409.9 1000 282.3 901.9 178.9 774.2 178.9ZM232.7 178.9C105 178.9 4 282.4 4 410.1S108.8 641.3 236.5 641.3C237.8 641.3 239.7 641.1 241 641.1 190.5 681.3 127 705.5 57.6 705.5 25.7 705.5 0 731.4 0 763.3S20.9 821.1 52.8 821.1C279.4 821.1 458.8 636.7 458.8 410.1 458.8 410 458.8 410 458.8 409.9 458.8 282.3 360.3 178.9 232.7 178.9Z",
        "width": 1000
      },
      "search": [
        "text-quotes"
      ]
    },
    {
      "uid": "cd111cbea384e6fd32792a1ceb6a8df0",
      "css": "arrow551",
      "code": 59406,
      "src": "custom_icons",
      "selected": false,
      "svg": {
        "path": "M770.8 312.1C758.1 305.4 747.2 299.7 739.8 295.1C686.2 261.4 628.5 228.3 568.5 196.7C512.3 167 453.3 138.3 393.2 111.3C377.6 104.3 362.7 95.5 346.8 86.2C320.7 70.8 293.7 54.9 262.5 46.8C233.9 39.3 210.7 44.2 195.4 60.3C174.9 81.8 173.7 116.6 175.3 147.9C177.8 200 178.4 253.4 179.1 305C179.3 329.8 179.6 354.6 180.1 379.4C181 425 181.5 470.6 182 516.3C183.3 634.3 184.6 756.4 193.5 876.7C193.8 880.7 194.6 884.6 196 888.7C199.7 912.2 217.6 928.9 239.5 928.9C245.4 928.9 251.4 927.7 257.3 925.4C372.6 879.8 489.1 812.5 613.5 719.6C666.4 680 720.5 636.3 774.2 589.7C784.1 581.2 797.3 571.9 811.2 562.1C848.4 536 890.6 506.4 904.2 466.9C909.4 451.6 911.7 427.6 892.8 400.2C866.9 362.7 811.4 333.5 770.8 312.1Z",
        "width": 1000
      },
      "search": [
        "arrow551"
      ]
    },
    {
      "uid": "11d7bba83918ffc6b0ddf26b977e259e",
      "css": "flaticon_32341",
      "code": 59419,
      "src": "custom_icons",
      "selected": false,
      "svg": {
        "path": "M146.3 853.8C341.3 1048.8 658.6 1048.8 853.6 853.8S1048.6 341.4 853.6 146.4S341.2-48.6 146.3 146.4S-48.8 658.7 146.3 853.8ZM185 185.2C358.7 11.6 641.2 11.6 814.8 185.2C988.4 358.8 988.4 641.3 814.8 815C641.2 988.6 358.6 988.6 185 815C11.4 641.3 11.4 358.8 185 185.2Z",
        "width": 1000
      },
      "search": [
        "flaticon_32341"
      ]
    },
    {
      "uid": "d1ceade4408fd1e40cb99c81016477f2",
      "css": "sun42",
      "code": 59429,
      "src": "custom_icons",
      "selected": false,
      "svg": {
        "path": "M891.1 222.8C808.5 116.3 694.5 59.6 569.4 55.4 565.1 53.4 560.5 51.7 554.8 50.9 248 7.6-33.8 282.6 7.6 592.9 41.1 843.6 284.2 990.3 522.9 951.7 734 917.7 952.1 766.6 990.2 544.4 1010.6 424.8 963.1 315.6 891.1 222.8ZM887.8 550.1C852.9 705.5 692.9 807.5 549.1 845.5 377.3 890.9 213.2 824.5 131.7 666 19.1 447 210 184.5 433.6 148.2 444.5 159.5 460.6 166 480.1 161.8 698.3 115.1 939.5 320.3 887.8 550.1Z",
        "width": 1000
      },
      "search": [
        "sun42"
      ]
    },
    {
      "uid": "cd5dc8ba3c97c8b0cfe5e2a6039a067a",
      "css": "next",
      "code": 59639,
      "src": "custom_icons",
      "selected": false,
      "svg": {
        "path": "",
        "width": 773
      },
      "search": [
        "next"
      ]
    },
    {
      "uid": "e83033d56b55051d22a2c24b463b879c",
      "css": "unlink",
      "code": 59402,
      "src": "custom_icons",
      "selected": false,
      "svg": {
        "path": "M933.8 66.3C845.5-22.1 701.8-22.1 613.5 66.3L439.9 239.8C432.6 247.2 432.6 259.1 439.9 266.5S459.2 273.9 466.6 266.5L640.1 93C675.6 57.5 723 37.9 773.6 37.9 824.2 37.9 871.6 57.5 907.1 93S962.1 175.9 962.1 226.5C962.1 277 942.6 324.4 907.1 359.9L680.2 586.9C606.6 660.4 486.8 660.4 413.2 586.9 405.8 579.5 393.9 579.5 386.5 586.9S379.1 606.2 386.5 613.5C430.7 657.7 488.7 679.8 546.7 679.8S662.7 657.7 706.9 613.5L933.8 386.6C976.4 344 999.9 287.1 999.9 226.4 999.9 165.8 976.4 108.9 933.8 66.3ZM506.7 760.4L359.8 907.2C324.3 942.7 276.9 962.2 226.4 962.2 175.8 962.2 128.4 942.7 92.9 907.2 19.3 833.6 19.3 713.8 92.9 640.2L306.5 426.6C380.1 353.1 499.8 353.1 573.4 426.6 580.8 434 592.7 434 600.1 426.6S607.5 407.3 600.1 400C511.8 311.6 368.1 311.6 279.8 400L66.2 613.5C23.5 656.2 0.1 713 0.1 773.7 0.1 834.4 23.6 891.3 66.2 933.9S165.7 1000 226.3 1000C287 1000 343.9 976.5 386.5 933.9L533.3 787C540.7 779.7 540.7 767.7 533.3 760.4S514 753 506.7 760.4Z",
        "width": 1000
      },
      "search": [
        "unlink"
      ]
    },
    {
      "uid": "fb51efd8561db96c37062d6659c78b4b",
      "css": "unlink-1",
      "code": 59403,
      "src": "custom_icons",
      "selected": false,
      "svg": {
        "path": "M930.9 69.1C838.7-23 688.7-23 596.5 69.1L429.3 236.4C415.1 250.6 415.1 273.6 429.3 287.8 443.5 302 466.5 302 480.7 287.8L647.9 120.6C678.7 89.8 719.8 72.9 763.7 72.9 807.6 72.9 848.7 89.8 879.4 120.6S927.2 192.5 927.2 236.4C927.2 280.3 910.2 321.4 879.4 352.1L660.8 570.8C597 634.6 493.1 634.6 429.2 570.8 415 556.6 392 556.6 377.8 570.8S363.6 608.1 377.8 622.3C423.9 668.4 484.5 691.4 545 691.4S666.1 668.4 712.2 622.3L930.9 403.6C975.4 359.1 999.9 299.7 999.9 236.4 999.9 173 975.4 113.7 930.9 69.1ZM493.6 738L352.1 879.5C321.3 910.3 280.2 927.2 236.3 927.2 192.4 927.2 151.3 910.3 120.5 879.5 56.7 815.7 56.7 711.8 120.5 648L326.4 442.2C357.1 411.4 398.2 394.5 442.1 394.5 486 394.5 527.1 411.4 557.9 442.2 572.1 456.4 595.1 456.4 609.3 442.2S623.5 404.9 609.3 390.7C517.1 298.5 367.1 298.5 274.9 390.7L69.1 596.6C24.6 641 0.1 700.4 0.1 763.8 0.1 827.1 24.6 886.5 69.1 931 113.6 975.5 173 1000 236.3 1000 299.6 1000 359 975.5 403.5 931L545 789.5C559.2 775.3 559.2 752.2 545 738S507.8 723.8 493.6 738Z",
        "width": 1000
      },
      "search": [
        "unlink-1"
      ]
    }
  ]
}